test_run_dir/PECross_should_pass/PECross.vcd
$date
2024-01-13T12:26+0000
$end
$version
0.2
$end
$comment

$end
$timescale 1ns  $end
$scope module PECross $end
 $var wire 1 & actInMux $end
 $var wire 1 ' multiply_io_input_io_weiOut_bits_last $end
 $var wire 1 ( multiply_io_input_io_actOut_ready $end
 $var wire 1 7 multiply_io_input_io_sumIn_valid $end
 $var wire 1 F multiply_io_input_io_sumOut_bits_last $end
 $var wire 1 R actOutHsk $end
 $var wire 1 X multiply_io_input_io_actIn_valid $end
 $var wire 1 Y weiOutHsk $end
 $var wire 1 f adderInHsk $end
 $var wire 1 l multiply_io_input_io_sumOut_ready $end
 $var wire 1 ", multiply $end
 $var wire 1 "0 multiply_io_input_io_weiIn_ready $end
 $var wire 1 "3 weiInMux $end
 $var wire 1 "4 weiOutMux $end
 $var wire 8 "6 multiply_io_input_io_actWeiIn_bits_x_0 $end
 $var wire 1 "7 actOutMux $end
 $var wire 1 ": adderInMux $end
 $var wire 1 "I multiply_io_input_io_weiEn $end
 $var wire 1 "Q multiply_io_input_io_weiIn_bits_last $end
 $var wire 8 "S multiply_io_input_io_weiOut_bits_x_0 $end
 $var wire 8 "U multiply_io_input_io_weiIn_bits_x_0 $end
 $var wire 1 "V multiply_io_input_io_weiOut_ready $end
 $var wire 1 "] multiply_io_input_io_actWeiIn_bits_last $end
 $var wire 8 "^ io_actOut_bits_x_0_r $end
 $var wire 1 "e multiply_io_input_io_actOut_valid $end
 $var wire 2 "j multiply_io_input_io_statSel $end
 $var wire 16 "n multiply_io_input_io_sumIn_bits_x_0 $end
 $var wire 1 "o multiply_io_input_io_sumIn_ready $end
 $var wire 1 "s clock $end
 $var wire 1 "v multiplyInHsk $end
 $var wire 1 #' multiplyOutMux $end
 $var wire 1 #+ multiply_io_input_io_actWeiIn_valid $end
 $var wire 1 #= multiply_io_input_io_actIn_ready $end
 $var wire 1 #> sumOutMux $end
 $var wire 1 #B multiply_io_input_io_actIn_bits_last $end
 $var wire 8 #H io_weiOut_bits_x_0_r $end
 $var wire 8 #L multiply_io_input_io_actOut_bits_x_0 $end
 $var wire 8 #d multiply_io_input_io_actIn_bits_x_0 $end
 $var wire 1 #i multiply_io_input_io_actOut_bits_last $end
 $var wire 1 #j multiply_io_input_io_weiIn_valid $end
 $var wire 1 #q accumulator $end
 $var wire 1 #w adder $end
 $var wire 1 $" reset $end
 $var wire 1 $$ multiply_io_input_io_sumOut_valid $end
 $var wire 1 $2 multiply_io_input_io_sumIn_bits_last $end
 $var wire 1 $3 multiply_io_input_io_actWeiIn_ready $end
 $var wire 8 $5 multiply_io_input_io_actWeiIn_bits_x_1 $end
 $var wire 1 $7 multiply_io_input_io_actEn $end
 $var wire 1 $; actWeiInHsk $end
 $var wire 1 $? multiplyInMux $end
 $var wire 1 $A multiply_io_input_io_weiOut_valid $end
 $var wire 16 $E multiply_io_input_io_sumOut_bits_x_0 $end
  $scope module actWeiInHsk $end
   $var wire 1 B io_output_bits_1_last $end
   $var wire 8 D io_input_0_bits_x_0 $end
   $var wire 1 z io_input_0_bits_last $end
   $var wire 1 "$ io_input_0_valid $end
   $var wire 1 "? io_input_1_bits_last $end
   $var wire 1 "E io_input_1_ready $end
   $var wire 1 "L io_output_ready $end
   $var wire 8 #" io_output_bits_0_x_0 $end
   $var wire 1 #T io_input_0_ready $end
   $var wire 8 #| io_output_bits_1_x_0 $end
   $var wire 1 #~ io_output_bits_0_last $end
   $var wire 1 $+ io_input_1_valid $end
   $var wire 8 $, io_input_1_bits_x_0 $end
   $var wire 1 $C io_output_valid $end
  $upscope $end
  $scope module accumulator $end
   $var wire 16 C io_output_bits_x_0_r $end
   $var wire 1 P io_input_ready $end
   $var wire 16 ^ sumNxt $end
   $var wire 1 q io_output_bits_last $end
   $var wire 1 "Z reset $end
   $var wire 1 "` io_input_bits_last $end
   $var wire 1 #$ io_input_valid $end
   $var wire 16 #_ io_output_bits_x_0 $end
   $var wire 1 #n io_output_bits_last_r $end
   $var wire 16 #u io_input_bits_x_0 $end
   $var wire 1 $4 clock $end
   $var wire 1 $B io_output_valid $end
  $upscope $end
  $scope module weiInMux $end
   $var wire 1 6 io_input_0_bits_last $end
   $var wire 1 ] io_input_0_valid $end
   $var wire 1 u io_input_1_bits_last $end
   $var wire 1 "O io_output_bits_last $end
   $var wire 1 "_ io_output_valid $end
   $var wire 1 #( io_input_0_ready $end
   $var wire 1 #N io_input_1_valid $end
   $var wire 8 #\ io_output_bits_x_0 $end
   $var wire 1 #f io_output_ready $end
   $var wire 8 #h io_input_0_bits_x_0 $end
   $var wire 1 #m io_sel $end
   $var wire 8 #o io_input_1_bits_x_0 $end
  $upscope $end
  $scope module actOutHsk $end
   $var wire 1 % ready_1 $end
   $var wire 1 . last_1_r $end
   $var wire 1 0 io_lastPre $end
   $var wire 1 3 last_0 $end
   $var wire 1 H io_validNxt $end
   $var wire 1 h ready_0 $end
   $var wire 1 "1 io_readyPre $end
   $var wire 1 "A reset $end
   $var wire 1 "J valid_1 $end
   $var wire 1 "M io_lastNxt $end
   $var wire 1 #) io_validPre $end
   $var wire 1 #2 valid_1_r $end
   $var wire 1 #7 last_1 $end
   $var wire 1 #Q io_readyNxt $end
   $var wire 1 #c valid_0 $end
   $var wire 1 $* clock $end
   $var wire 1 $@ io_regen_0 $end
  $upscope $end
  $scope module actInMux $end
   $var wire 1 1 io_input_0_ready $end
   $var wire 1 < io_sel $end
   $var wire 1 M io_input_1_valid $end
   $var wire 1 v io_output_bits_last $end
   $var wire 1 "R io_output_ready $end
   $var wire 8 "T io_output_bits_x_0 $end
   $var wire 8 "X io_input_1_bits_x_0 $end
   $var wire 1 "h io_input_0_valid $end
   $var wire 8 #, io_input_0_bits_x_0 $end
   $var wire 1 #[ io_input_0_bits_last $end
   $var wire 1 $/ io_input_1_bits_last $end
   $var wire 1 $= io_output_valid $end
  $upscope $end
  $scope module multiplyInMux $end
   $var wire 1 # io_output_1_ready $end
   $var wire 8 V io_output_0_bits_x_0 $end
   $var wire 1 m io_input_valid $end
   $var wire 8 "' io_input_bits_x_1 $end
   $var wire 1 "@ io_output_0_ready $end
   $var wire 1 "D readyVec_1 $end
   $var wire 8 #% io_input_bits_x_0 $end
   $var wire 1 #& io_sel $end
   $var wire 1 #0 io_output_0_bits_last $end
   $var wire 1 #@ io_input_ready $end
   $var wire 8 #W io_output_0_bits_x_1 $end
   $var wire 1 #X readyVec_0 $end
   $var wire 1 $% io_input_bits_last $end
   $var wire 1 $) io_output_0_valid $end
  $upscope $end
  $scope module adder $end
   $var wire 16 * io_output_bits_x_0 $end
   $var wire 1 d clock $end
   $var wire 1 } io_input_valid $end
   $var wire 1 "2 io_output_valid $end
   $var wire 16 "9 io_input_bits_x_1 $end
   $var wire 16 "; r_0 $end
   $var wire 1 "[ reset $end
   $var wire 1 "x io_input_ready $end
   $var wire 16 "| sum_0 $end
   $var wire 1 #8 io_output_ready $end
   $var wire 1 #C hsk $end
   $var wire 1 #R io_output_bits_last $end
   $var wire 16 #U io_input_bits_x_0 $end
   $var wire 1 #y io_input_bits_last $end
    $scope module hsk $end
     $var wire 1 " io_regen_0 $end
     $var wire 1 = io_lastPre $end
     $var wire 1 J last_1_r $end
     $var wire 1 Q ready_1 $end
     $var wire 1 Z clock $end
     $var wire 1 a last_1 $end
     $var wire 1 { valid_1_r $end
     $var wire 1 "# io_readyNxt $end
     $var wire 1 "( ready_0 $end
     $var wire 1 "- last_0 $end
     $var wire 1 "k io_lastNxt $end
     $var wire 1 "{ valid_1 $end
     $var wire 1 "} io_validNxt $end
     $var wire 1 #/ reset $end
     $var wire 1 #` io_readyPre $end
     $var wire 1 $1 valid_0 $end
     $var wire 1 $9 io_validPre $end
    $upscope $end
  $upscope $end
  $scope module sumOutMux $end
   $var wire 1 ! io_sel $end
   $var wire 1 $ io_input_1_valid $end
   $var wire 1 8 io_output_valid $end
   $var wire 1 | io_output_bits_last $end
   $var wire 1 "> io_input_0_bits_last $end
   $var wire 1 "B io_input_0_valid $end
   $var wire 1 "g io_input_1_bits_last $end
   $var wire 1 "q io_output_ready $end
   $var wire 16 "~ io_output_bits_x_0 $end
   $var wire 16 #6 io_input_1_bits_x_0 $end
   $var wire 1 #K io_input_0_ready $end
   $var wire 16 #t io_input_0_bits_x_0 $end
  $upscope $end
  $scope module multiply $end
   $var wire 3 / out0IncMux $end
   $var wire 8 5 in0 $end
   $var wire 8 A io_input_bits_x_1 $end
   $var wire 16 N out0 $end
   $var wire 1 S io_input_ready $end
   $var wire 16 \ out0Inc $end
   $var wire 16 _ out0Nxt $end
   $var wire 1 s clock $end
   $var wire 8 "! io_input_bits_x_0 $end
   $var wire 1 "< io_output_valid $end
   $var wire 8 "F in1Inc $end
   $var wire 1 "b io_output_bits_last $end
   $var wire 1 #< io_input_bits_last $end
   $var wire 1 #? reset $end
   $var wire 16 #^ io_output_bits_x_0 $end
   $var wire 8 #g in1 $end
   $var wire 1 #x io_input_valid $end
   $var wire 1 $& io_output_ready $end
   $var wire 8 $( in0Nxt $end
   $var wire 1 $8 counterHsk $end
    $scope module counterHsk $end
     $var wire 1 , io_lastNxt $end
     $var wire 3 9 counterNxt $end
     $var wire 1 > io_lastNxt_r $end
     $var wire 1 @ io_readyNxt $end
     $var wire 1 g io_validNxt $end
     $var wire 1 w reset $end
     $var wire 1 ". counterEn $end
     $var wire 1 "i io_regen $end
     $var wire 1 "p io_lastPre $end
     $var wire 1 #9 io_readyPre $end
     $var wire 1 #Z io_validPre $end
     $var wire 3 $- counter $end
     $var wire 1 $: clock $end
    $upscope $end
  $upscope $end
  $scope module actOutMux $end
   $var wire 1 : readyVec_1 $end
   $var wire 8 ; io_input_bits_x_1 $end
   $var wire 1 T io_input_valid $end
   $var wire 1 r io_output_0_ready $end
   $var wire 8 "= io_output_0_bits_x_1 $end
   $var wire 1 "G readyVec_0 $end
   $var wire 8 "H io_input_bits_x_0 $end
   $var wire 1 "a io_input_bits_last $end
   $var wire 1 "y io_output_0_bits_last $end
   $var wire 1 #* io_input_ready $end
   $var wire 1 #I io_output_0_valid $end
   $var wire 1 #O io_sel $end
   $var wire 8 #P io_output_0_bits_x_0 $end
   $var wire 1 #e io_output_1_ready $end
  $upscope $end
  $scope module adder.hsk $end
  $upscope $end
  $scope module adderInHsk $end
   $var wire 1 c io_input_1_ready $end
   $var wire 1 "* io_input_0_ready $end
   $var wire 16 "5 io_input_1_bits_x_0 $end
   $var wire 1 "P io_input_1_bits_last $end
   $var wire 16 "d io_input_0_bits_x_0 $end
   $var wire 1 #- io_output_valid $end
   $var wire 16 #5 io_output_bits_0_x_0 $end
   $var wire 1 #; io_input_1_valid $end
   $var wire 16 #Y io_output_bits_1_x_0 $end
   $var wire 1 #p io_input_0_valid $end
   $var wire 1 $6 io_output_ready $end
   $var wire 1 $< io_output_bits_1_last $end
  $upscope $end
  $scope module weiOutHsk $end
   $var wire 1 + io_lastNxt $end
   $var wire 1 - io_validPre $end
   $var wire 1 2 valid_0 $end
   $var wire 1 U last_1_r $end
   $var wire 1 b reset $end
   $var wire 1 i valid_1_r $end
   $var wire 1 k ready_1 $end
   $var wire 1 t last_0 $end
   $var wire 1 "/ io_readyNxt $end
   $var wire 1 "W io_validNxt $end
   $var wire 1 "f io_regen_0 $end
   $var wire 1 "r ready_0 $end
   $var wire 1 ## io_lastPre $end
   $var wire 1 #. valid_1 $end
   $var wire 1 #r last_1 $end
   $var wire 1 #v clock $end
   $var wire 1 $0 io_readyPre $end
  $upscope $end
  $scope module multiply.counterHsk $end
  $upscope $end
  $scope module multiplyOutMux $end
   $var wire 1 L io_output_1_valid $end
   $var wire 1 ` readyVec_0 $end
   $var wire 16 p io_input_bits_x_0 $end
   $var wire 16 x io_output_1_bits_x_0 $end
   $var wire 1 ~ io_input_ready $end
   $var wire 1 "+ io_output_0_bits_last $end
   $var wire 1 "N io_output_0_valid $end
   $var wire 16 "\ io_output_0_bits_x_0 $end
   $var wire 1 "t io_output_1_ready $end
   $var wire 1 #4 io_output_1_bits_last $end
   $var wire 1 #M io_output_0_ready $end
   $var wire 1 #S readyVec_1 $end
   $var wire 1 #V io_input_valid $end
   $var wire 1 #s io_input_bits_last $end
   $var wire 1 $! io_sel $end
  $upscope $end
  $scope module multiplyInHsk $end
   $var wire 1 ) io_output_2_ready $end
   $var wire 8 E io_input_bits_2_x_0 $end
   $var wire 1 G io_output_0_valid $end
   $var wire 8 I io_output_0_bits_x_1 $end
   $var wire 8 K io_output_2_bits_x_0 $end
   $var wire 1 [ io_output_1_bits_last $end
   $var wire 1 j io_input_ready $end
   $var wire 8 y io_input_bits_0_x_1 $end
   $var wire 1 "% io_output_2_bits_last $end
   $var wire 8 "& io_output_1_bits_x_0 $end
   $var wire 1 "8 io_output_1_ready $end
   $var wire 8 "Y io_output_0_bits_x_0 $end
   $var wire 1 "c io_output_2_valid $end
   $var wire 1 "l io_input_bits_0_last $end
   $var wire 8 "w io_input_bits_1_x_1 $end
   $var wire 1 "z io_output_0_ready $end
   $var wire 8 #1 io_input_bits_0_x_0 $end
   $var wire 1 #E io_input_bits_1_last $end
   $var wire 8 #G io_output_2_bits_x_1 $end
   $var wire 8 #J io_input_bits_2_x_1 $end
   $var wire 8 #] io_input_bits_1_x_0 $end
   $var wire 1 #l io_output_0_bits_last $end
   $var wire 1 #{ io_input_valid $end
   $var wire 8 #} io_output_1_bits_x_1 $end
   $var wire 1 $' io_output_1_valid $end
   $var wire 1 $. io_input_bits_2_last $end
  $upscope $end
  $scope module adderInMux $end
   $var wire 16 ? io_output_bits_x_0 $end
   $var wire 1 W io_input_1_bits_last $end
   $var wire 1 e io_output_ready $end
   $var wire 1 "" io_output_bits_last $end
   $var wire 1 "C io_input_0_ready $end
   $var wire 16 "K io_input_1_bits_x_0 $end
   $var wire 16 #: io_input_0_bits_x_0 $end
   $var wire 1 #A io_input_1_valid $end
   $var wire 1 #D io_output_valid $end
   $var wire 1 #F io_sel $end
   $var wire 1 #b io_input_0_bits_last $end
   $var wire 1 #z io_input_0_valid $end
  $upscope $end
  $scope module weiOutMux $end
   $var wire 1 4 io_input_ready $end
   $var wire 1 O io_output_0_bits_last $end
   $var wire 8 n io_output_0_bits_x_1 $end
   $var wire 8 o io_input_bits_x_1 $end
   $var wire 1 ") io_output_0_ready $end
   $var wire 1 "m io_input_valid $end
   $var wire 8 "u io_input_bits_x_0 $end
   $var wire 8 #! io_output_0_bits_x_0 $end
   $var wire 1 #3 readyVec_1 $end
   $var wire 1 #a io_output_0_valid $end
   $var wire 1 #k readyVec_0 $end
   $var wire 1 $# io_input_bits_last $end
   $var wire 1 $> io_sel $end
   $var wire 1 $D io_output_1_ready $end
  $upscope $end
$upscope $end
$enddefinitions $end
$dumpvars
1P
0"c
0#D
0$%
0R
0=
0"1
0#c
0$D
b0000000000000000 "\
0"P
b00000000 A
b00000000 "X
b00000000 "&
0"v
0$8
0m
b0000000000000000 ";
b00000000 #|
b00000000 #g
b00000000 #J
b00000000 "T
b000 9
0~
0"r
0#S
0$4
0a
0L
0"@
0"#
b0000000000000000 "9
b00000000 ;
0z
0#O
0$0
0r
0]
0"Q
0#2
0H
0@
0+
0"<
b0000000000000000 "|
b0000000000000000 "5
b00000000 "F
0#w
0#b
0"l
0#M
0$.
0#E
0"O
0#0
0$&
0$C
0"2
b0000000000000000 C
0>
0#s
0"}
0$?
b0000000000000000 \
0l
0"`
0$"
0O
0"C
0#$
0:
0".
b0000000000000000 ?
b0000000000000000 "n
b0000000000000000 #:
b00000000 #}
b00000000 #h
0`
0"?
0"*
b0000000000000000 #6
b00000000 #d
b00000000 #G
b00000000 $(
0#m
0"o
0$1
b0000000000000000 N
b00000000 "w
0#~
0#a
0$B
0"k
b0000000000000000 _
0Z
0"N
0#/
b00000000 I
0k
0"_
b00000000 "u
0#@
0$!
0"-
0$@
b00000000 o
0|
1#A
0J
0#p
0-
0"z
0#[
0$<
0"]
0#>
0"+
b00000000 "H
b00000000 #W
b00000000 #%
0#`
0$A
b00000000 "'
b0000000000000000 ^
0Y
0"M
0#.
0<
0'
b0000000000000000 #Y
b00000000 "U
b00000000 #!
0"{
0$=
0j
0U
0"I
0#*
0M
08
0",
0#
0#{
b0000000000000000 #U
b00000000 "S
0"y
b00000000 "6
0}
0h
0"q
0#R
0$3
b00000000 "!
0#Z
0$;
0"G
0#(
0#=
b00 "j
0#k
0"m
0#9
0#N
0$/
0G
b0000000000000000 $E
b00000000 K
0X
0"L
0"7
0""
0#-
0&
b0000000000000000 #u
b00000000 y
b00000000 $5
b00000000 "^
0#z
b00000000 #"
b0000000000000000 x
0$>
0"g
0$)
b0000000000000000 p
0"J
0#+
b00000000 #P
0#v
b00000000 "=
0#n
0"x
0$:
0g
0"[
0#'
0#<
0")
b0000000000000000 #5
b00000000 V
0[
0F
0":
b00000000 #1
0#l
0)
b00000000 5
b000 /
0W
b0000000000000000 *
0%
0v
0#K
0"8
0#y
06
0!
0"f
0"4
b00000000 D
0#X
0$9
0{
0f
0"Z
0"E
0#&
0#;
04
0"(
0Q
0#i
0w
0b
0"V
0#7
00
0"$
0(
0#V
0$7
b0000000000000000 "d
b00000000 #,
0u
0"i
0$+
b00000000 E
b00000000 #o
0#x
0q
0"e
0#F
0i
0$'
0T
0"3
0#)
07
0"
0"a
0#B
0e
0$#
0"D
0"/
03
b00000000 #L
0#r
0#j
0"t
0$6
0c
0"W
0"B
0##
0#8
01
0"%
b00000000 #]
b00000000 #H
0#f
0"p
0#Q
0$2
0"h
0#4
0">
0#I
0$*
0t
0B
b0000000000000000 #t
b0000000000000000 "~
b0000000000000000 #_
0S
0d
b00000000 "Y
b000 $-
02
0"b
0#C
0$$
0"0
b00000000 $,
0#q
0.
0"s
0#T
0#?
0"A
b00000000 #\
b00000000 n
0#e
0s
0"R
0#3
0,
0$
b0000000000000000 #^
b0000000000000000 "K
$end
#0
1"t
1$6
14
1#@
1h
1S
1$0
1j
1b
1M
1#f
1"8
1#M
1$&
1`
1#*
1w
1$"
1#`
1#X
1"E
1"0
1"(
b001 9
1#=
1"G
1#(
1"*
1#T
1#?
1"A
1#k
1#9
1"C
1~
1"o
1"Z
1#3
1"R
1c
1$3
11
1e
1#/
1$D
1#N
1#e
1)
1"L
1"D
1r
1@
1"x
1#
1"[
1"1
1")
1"z
1:
1#S
1"r
1"@
#1
1#v
1d
1s
1$:
1Z
1$*
1$4
1"s
#6
0#?
0"A
0w
0Z
0$*
0$"
0"Z
0b
0#v
0d
0s
0$:
0"[
0$4
0#/
0"s
#11
1#v
1d
1s
1$:
1Z
1$*
1$4
1"s
#16
0#v
0d
0s
0$:
0Z
0$*
0$4
0"s
#21
1#v
1d
1s
1$:
1Z
1$*
1$4
1"s
#26
0#v
0d
0s
0$:
0Z
0$*
0$4
0"s
#31
1#v
1d
1s
1$:
1Z
1$*
1$4
1"s
#36
0#v
0d
0s
0$:
0Z
0$*
0$4
0"s
#41
1#v
1d
1s
1$:
1Z
1$*
1$4
1"s
#46
0#v
0d
0s
0$:
0Z
0$*
0$4
0"s
#51
1#v
1d
1s
1$:
1Z
1$*
1$4
1"s
#56
0#v
0d
0s
0$:
0Z
0$*
0$4
0"s
#61
1#v
1d
1s
1$:
1Z
1$*
1$4
1"s
#66
0#v
0d
0s
0$:
0Z
0$*
0$4
0"s
#71
1#v
1d
1s
1$:
1Z
1$*
1$4
1"s
#76
0#v
0d
0s
0$:
0Z
0$*
0$4
0"s
#81
1#v
1d
1s
1$:
1Z
1$*
1$4
1"s
#86
0#v
0d
0s
0$:
0Z
0$*
0$4
0"s
#91
1#v
1d
1s
1$:
1Z
1$*
1$4
1"s
#96
0#v
0d
0s
0$:
0Z
0$*
0$4
0"s
#101
1#v
1d
1s
1$:
1Z
1$*
1$4
1"s
#106
b10110000 #W
1#Q
1"p
10
1$2
b10110000 y
b01100000 "!
b10110000 #}
1G
1#K
b10110000 $,
1"#
b10110000 I
1$C
1"l
1$.
1#E
1#0
1"O
1#y
1X
b10110000 #G
1"f
b10000000 $(
b1111111101100000 \
1m
b10110000 #\
1$=
b10110000 ;
b01100000 "u
b01100000 "&
b01100000 #P
1#;
0"o
b10110000 "=
0c
11
b10110000 #J
b01100000 "T
1"?
1$+
1"i
1]
1#a
1"m
1v
b10110000 #|
1"-
0#v
0$:
1$%
b0000110100000000 #Y
1"c
b10110000 "F
1l
1O
0$4
b01100000 #!
1Q
1#j
1"_
1#8
1##
1"%
1#l
b01100000 K
16
b0000110100000000 "n
b01100000 "Y
b10110000 "'
0d
b10110000 #h
12
b10110000 "U
b10110000 A
b01100000 #d
1"Q
1#{
b10110000 o
0Z
b01100000 E
0$*
1=
1(
1"h
b01100000 #,
1#I
1".
1T
b10110000 "w
0s
1k
b01100000 V
1"y
1#Z
1#=
0"s
1#T
13
b01100000 #"
1"$
17
b011 /
1"R
1"q
1z
1#~
1"V
b0000110100000000 "9
1t
b1111111101100000 _
1#x
1#c
1B
1-
1$'
b01100000 #1
1%
1"P
b01100000 D
b01100000 #]
b0000110100000000 "|
1$)
b0000110100000000 "5
1[
1$@
1#B
1"a
1$#
b01100000 #%
1"/
1#<
1#[
1$<
b01100000 "H
1#)
b10110000 n
#111
1#r
b1111111101100000 #U
0#@
1"W
0S
b1111111101100000 #:
0j
0#f
b10110000 "S
1d
02
1#.
1"M
b1111111101100000 ^
b1111111101100000 "d
1.
0"f
1#2
b00000000 $(
1Z
b1111111101100000 #^
1$*
0#I
b0000000010100000 \
b1111111101100000 #u
1$A
0T
b1111111101100000 ?
0#X
0"E
1s
0"0
b010 9
b1111111101100000 "\
0#(
0#=
1"s
b01100000 "^
0#T
b10000000 5
0#9
1i
b100 /
0"R
b1111111101100000 N
b10110000 #g
0$3
01
b1111111101100000 #5
1#i
1H
0#a
b01100000 #L
1#7
1+
b001 $-
b1111111000100000 _
0#c
0"m
0-
1"e
0$'
b0000110001100000 "|
b10110000 #H
1'
1"J
b1111111101100000 x
b1111111101100000 p
0$@
0"L
1#v
1U
1$:
0"c
0"z
1$4
0#)
0"@
#116
0#v
0d
0s
0$:
0Z
0$*
0$4
0"s
#121
b1111111000100000 #U
0"W
b00000000 5
0i
b1111111000100000 #:
b000 /
b1111111000100000 N
1d
b1111111000100000 #5
0#.
0H
b010 $-
b1111111000100000 ^
b1111111000100000 "d
b1111100010000000 _
0"e
0#2
b0000101100100000 "|
1Z
0"J
b1111111000100000 #^
1$*
b1111111000100000 x
b1111111000100000 p
b0000000000000000 \
b1111111000100000 #u
0$A
b1111111000100000 ?
1#v
1s
1$:
b011 9
b1111111000100000 "\
1$4
1"s
#126
0#v
0d
0s
0$:
0Z
0$*
0$4
0"s
#131
b1110001000000000 _
b1111100010000000 #U
b0000010110000000 "|
1Z
b1111100010000000 #^
1$*
b1111100010000000 x
b1111100010000000 p
b1111100010000000 #:
b1111100010000000 #u
b1111100010000000 ?
b1111100010000000 N
1#v
1d
1s
b1111100010000000 #5
1$:
b100 9
b1111100010000000 "\
b011 $-
b1111100010000000 ^
1$4
b1111100010000000 "d
1"s
#136
0#v
0d
0s
0$:
0Z
0$*
0$4
0"s
#141
b1110001000000000 #U
1#@
1}
1S
b1110001000000000 #:
1"<
1j
1#f
1d
12
b1110001000000000 ^
b1110001000000000 "d
1"f
b10000000 $(
1Z
b1110001000000000 #^
1$*
1#I
b1111111101100000 \
b1110001000000000 #u
1T
b1110001000000000 ?
1$9
1#X
1"
1"E
1s
1"0
b001 9
b1110001000000000 "\
1#(
1#=
1#T
1"s
1g
1#V
1#9
1$1
1"o
b011 /
1"R
1c
b1110001000000000 N
1$3
11
b1110001000000000 #5
1#a
b100 $-
1"N
b1111111101100000 _
1#c
1"m
1-
1$'
1#z
b1110111100000000 "|
b1110001000000000 x
b1110001000000000 p
1$@
1#-
1"L
1#v
1$:
1#D
1"c
1#p
1"z
1$4
1#)
1"@
#146
0#v
0d
0s
0$:
0Z
0$*
0$4
0"s
#151
b1111111101100000 #U
0#@
1"W
1"B
0}
0S
b1111111101100000 #:
0"<
0j
0#f
1#4
1">
1d
02
b1110111100000000 *
1#.
1{
b1111111101100000 ^
1#b
1,
b1111111101100000 "d
1"2
b1110111100000000 $E
0"f
1#2
b00000000 $(
1Z
1"}
1$*
b1111111101100000 #^
0#I
1"`
b0000000010100000 \
b1111111101100000 #u
1$A
0T
b1111111101100000 ?
0$9
1$$
1"b
0"
0#X
0"E
1s
0"0
b010 9
b1111111101100000 "\
0#(
0#=
1"{
1"s
0#T
1#s
0g
0#V
1J
b10000000 5
0#9
b1110111100000000 ";
1i
1a
0$1
0"o
b100 /
0"R
0c
b1111111101100000 N
1#R
1F
01
0$3
b1111111101100000 #5
1""
1H
0#a
1"k
b001 $-
0"N
1|
b1111111000100000 _
0#c
0"m
0-
1"e
0$'
0#z
b0000110001100000 "|
1"J
b1111111101100000 x
b1111111101100000 p
b1110111100000000 #t
b1110111100000000 "~
0$@
1>
0#-
0"L
1#v
1$:
0#D
18
0"c
0#p
0"z
1$4
0#)
0"@
1"+
#156
0#j
b00000000 #d
0X
0"Q
0Z
b0000000000000000 "n
0$*
0(
07
0#B
0$2
0#v
0d
0s
0$:
b00000000 "U
0l
0"V
0$4
0"s
